%YAML 1.1
%TAG !u! tag:unity3d.com,2011:
--- !u!114 &11400000
MonoBehaviour:
  m_ObjectHideFlags: 0
  m_CorrespondingSourceObject: {fileID: 0}
  m_PrefabInstance: {fileID: 0}
  m_PrefabAsset: {fileID: 0}
  m_GameObject: {fileID: 0}
  m_Enabled: 1
  m_EditorHideFlags: 0
  m_Script: {fileID: 11500000, guid: 968365a319e694d4daae781e512466cb, type: 3}
  m_Name: Spider
  m_EditorClassIdentifier: 
  _beingName: Spider
  _decayTimeMinutes: 10
  _dirtyness: 100
  _hunger: 100
  _happiness: 100
  _dirtynessDecay: 0.855
  _hungerDecay: 0.546
  _happinessDecay: 0.768
